M48
;DRILL file {KiCad 5.0.1} date Sun 03 Mar 2019 07:13:57 PM CET
;FORMAT={-:-/ absolute / metric / decimal}
FMAT,2
METRIC,TZ
T1C0.300
T2C0.762
T3C1.000
T4C1.600
T5C3.200
%
G90
G05
M71
T1
X84.582Y-78.867
X84.582Y-82.804
X86.741Y-70.993
X88.519Y-70.993
X89.662Y-39.497
X90.678Y-68.961
X92.837Y-69.088
X93.345Y-68.072
X94.742Y-76.962
X97.028Y-72.441
X97.028Y-76.962
X99.289Y-78.283
X100.33Y-78.283
X101.879Y-72.365
X101.981Y-66.929
X105.664Y-60.325
X107.315Y-50.99
X107.315Y-57.087
X107.315Y-44.895
X109.029Y-42.799
X109.029Y-43.942
X109.029Y-48.895
X109.029Y-50.038
X109.029Y-54.991
X109.029Y-56.134
X109.22Y-75.057
X109.855Y-74.295
X110.363Y-67.945
X110.998Y-67.945
X111.633Y-42.799
X111.633Y-44.069
X111.633Y-45.339
X111.633Y-48.895
X111.633Y-50.165
X111.633Y-51.435
X111.633Y-54.991
X111.633Y-56.261
X111.633Y-57.531
X111.633Y-67.945
X112.268Y-67.945
X112.522Y-74.295
X112.522Y-75.565
X112.522Y-76.2
X112.522Y-76.835
X112.903Y-67.945
X116.459Y-67.945
X117.729Y-67.945
X118.999Y-65.341
X118.999Y-67.945
X120.269Y-56.134
X120.269Y-58.166
X121.666Y-76.962
X121.666Y-78.994
T2
X77.22Y-36.03
X77.22Y-63.97
X79.76Y-36.03
X79.76Y-63.97
X82.3Y-36.03
X82.3Y-63.97
X84.84Y-36.03
X84.84Y-63.97
X87.38Y-36.03
X87.38Y-63.97
X89.92Y-36.03
X89.92Y-63.97
X92.46Y-36.03
X92.46Y-63.97
X95.Y-36.03
X95.Y-63.97
X97.54Y-36.03
X97.54Y-63.97
X100.08Y-36.03
X100.08Y-63.97
X102.62Y-36.03
X102.62Y-63.97
X105.16Y-36.03
X105.16Y-63.97
X107.7Y-36.03
X107.7Y-63.97
X110.24Y-36.03
X110.24Y-63.97
X112.78Y-36.03
X112.78Y-63.97
T3
X122.Y-46.38
X122.Y-48.92
X122.Y-51.46
X122.Y-54.
X122.Y-67.38
X122.Y-69.92
X122.Y-72.46
X122.Y-75.
T4
X77.693Y-71.882
X80.693Y-76.582
X83.693Y-71.882
T5
X74.5Y-83.5
X120.5Y-37.5
X74.5Y-44.
X120.5Y-83.5
T0
M30
